https://temp-mail.org

ayaworkshop@mail-apps.net


---------------------------------

https://dashboard.tawk.to
ayaworkshop@mail-apps.net
Aya@2019



---------------------------

Dashboard:
support@ayaworkshop.com
admin